# 1 "files/callfpointer.c"
# 1 "<built-in>"
# 1 "<command-line>"
# 1 "files/callfpointer.c"



int VERDICT_UNSAFE;

void f(void g(int)) {
 g(1);
}

void h(int i) {
 if(i==1) {
  ERROR: goto ERROR;
 } else {

 }
}
int main(void) {
 f(h);

 return 0;
}
