# 1 "files/fo_test.c"
# 1 "<built-in>"
# 1 "<command-line>"
# 1 "files/fo_test.c"
# 1 "/usr/include/stdlib.h" 1 3 4
# 25 "/usr/include/stdlib.h" 3 4
# 1 "/usr/include/features.h" 1 3 4
# 347 "/usr/include/features.h" 3 4
# 1 "/usr/include/sys/cdefs.h" 1 3 4
# 353 "/usr/include/sys/cdefs.h" 3 4
# 1 "/usr/include/bits/wordsize.h" 1 3 4
# 354 "/usr/include/sys/cdefs.h" 2 3 4
# 348 "/usr/include/features.h" 2 3 4
# 371 "/usr/include/features.h" 3 4
# 1 "/usr/include/gnu/stubs.h" 1 3 4



# 1 "/usr/include/bits/wordsize.h" 1 3 4
# 5 "/usr/include/gnu/stubs.h" 2 3 4




# 1 "/usr/include/gnu/stubs-64.h" 1 3 4
# 10 "/usr/include/gnu/stubs.h" 2 3 4
# 372 "/usr/include/features.h" 2 3 4
# 26 "/usr/include/stdlib.h" 2 3 4







# 1 "/usr/lib64/gcc/x86_64-suse-linux/4.5/include/stddef.h" 1 3 4
# 211 "/usr/lib64/gcc/x86_64-suse-linux/4.5/include/stddef.h" 3 4
typedef long unsigned int size_t;
# 323 "/usr/lib64/gcc/x86_64-suse-linux/4.5/include/stddef.h" 3 4
typedef int wchar_t;
# 34 "/usr/include/stdlib.h" 2 3 4


# 96 "/usr/include/stdlib.h" 3 4


typedef struct
  {
    int quot;
    int rem;
  } div_t;



typedef struct
  {
    long int quot;
    long int rem;
  } ldiv_t;







__extension__ typedef struct
  {
    long long int quot;
    long long int rem;
  } lldiv_t;


# 140 "/usr/include/stdlib.h" 3 4
extern size_t __ctype_get_mb_cur_max (void) __attribute__ ((__nothrow__)) ;




extern double atof (__const char *__nptr)
     __attribute__ ((__nothrow__)) __attribute__ ((__pure__)) __attribute__ ((__nonnull__ (1))) ;

extern int atoi (__const char *__nptr)
     __attribute__ ((__nothrow__)) __attribute__ ((__pure__)) __attribute__ ((__nonnull__ (1))) ;

extern long int atol (__const char *__nptr)
     __attribute__ ((__nothrow__)) __attribute__ ((__pure__)) __attribute__ ((__nonnull__ (1))) ;





__extension__ extern long long int atoll (__const char *__nptr)
     __attribute__ ((__nothrow__)) __attribute__ ((__pure__)) __attribute__ ((__nonnull__ (1))) ;





extern double strtod (__const char *__restrict __nptr,
        char **__restrict __endptr)
     __attribute__ ((__nothrow__)) __attribute__ ((__nonnull__ (1))) ;





extern float strtof (__const char *__restrict __nptr,
       char **__restrict __endptr) __attribute__ ((__nothrow__)) __attribute__ ((__nonnull__ (1))) ;

extern long double strtold (__const char *__restrict __nptr,
       char **__restrict __endptr)
     __attribute__ ((__nothrow__)) __attribute__ ((__nonnull__ (1))) ;





extern long int strtol (__const char *__restrict __nptr,
   char **__restrict __endptr, int __base)
     __attribute__ ((__nothrow__)) __attribute__ ((__nonnull__ (1))) ;

extern unsigned long int strtoul (__const char *__restrict __nptr,
      char **__restrict __endptr, int __base)
     __attribute__ ((__nothrow__)) __attribute__ ((__nonnull__ (1))) ;




__extension__
extern long long int strtoq (__const char *__restrict __nptr,
        char **__restrict __endptr, int __base)
     __attribute__ ((__nothrow__)) __attribute__ ((__nonnull__ (1))) ;

__extension__
extern unsigned long long int strtouq (__const char *__restrict __nptr,
           char **__restrict __endptr, int __base)
     __attribute__ ((__nothrow__)) __attribute__ ((__nonnull__ (1))) ;





__extension__
extern long long int strtoll (__const char *__restrict __nptr,
         char **__restrict __endptr, int __base)
     __attribute__ ((__nothrow__)) __attribute__ ((__nonnull__ (1))) ;

__extension__
extern unsigned long long int strtoull (__const char *__restrict __nptr,
     char **__restrict __endptr, int __base)
     __attribute__ ((__nothrow__)) __attribute__ ((__nonnull__ (1))) ;

# 311 "/usr/include/stdlib.h" 3 4
extern char *l64a (long int __n) __attribute__ ((__nothrow__)) ;


extern long int a64l (__const char *__s)
     __attribute__ ((__nothrow__)) __attribute__ ((__pure__)) __attribute__ ((__nonnull__ (1))) ;




# 1 "/usr/include/sys/types.h" 1 3 4
# 29 "/usr/include/sys/types.h" 3 4


# 1 "/usr/include/bits/types.h" 1 3 4
# 28 "/usr/include/bits/types.h" 3 4
# 1 "/usr/include/bits/wordsize.h" 1 3 4
# 29 "/usr/include/bits/types.h" 2 3 4


typedef unsigned char __u_char;
typedef unsigned short int __u_short;
typedef unsigned int __u_int;
typedef unsigned long int __u_long;


typedef signed char __int8_t;
typedef unsigned char __uint8_t;
typedef signed short int __int16_t;
typedef unsigned short int __uint16_t;
typedef signed int __int32_t;
typedef unsigned int __uint32_t;

typedef signed long int __int64_t;
typedef unsigned long int __uint64_t;







typedef long int __quad_t;
typedef unsigned long int __u_quad_t;
# 131 "/usr/include/bits/types.h" 3 4
# 1 "/usr/include/bits/typesizes.h" 1 3 4
# 132 "/usr/include/bits/types.h" 2 3 4


typedef unsigned long int __dev_t;
typedef unsigned int __uid_t;
typedef unsigned int __gid_t;
typedef unsigned long int __ino_t;
typedef unsigned long int __ino64_t;
typedef unsigned int __mode_t;
typedef unsigned long int __nlink_t;
typedef long int __off_t;
typedef long int __off64_t;
typedef int __pid_t;
typedef struct { int __val[2]; } __fsid_t;
typedef long int __clock_t;
typedef unsigned long int __rlim_t;
typedef unsigned long int __rlim64_t;
typedef unsigned int __id_t;
typedef long int __time_t;
typedef unsigned int __useconds_t;
typedef long int __suseconds_t;

typedef int __daddr_t;
typedef long int __swblk_t;
typedef int __key_t;


typedef int __clockid_t;


typedef void * __timer_t;


typedef long int __blksize_t;




typedef long int __blkcnt_t;
typedef long int __blkcnt64_t;


typedef unsigned long int __fsblkcnt_t;
typedef unsigned long int __fsblkcnt64_t;


typedef unsigned long int __fsfilcnt_t;
typedef unsigned long int __fsfilcnt64_t;

typedef long int __ssize_t;



typedef __off64_t __loff_t;
typedef __quad_t *__qaddr_t;
typedef char *__caddr_t;


typedef long int __intptr_t;


typedef unsigned int __socklen_t;
# 32 "/usr/include/sys/types.h" 2 3 4



typedef __u_char u_char;
typedef __u_short u_short;
typedef __u_int u_int;
typedef __u_long u_long;
typedef __quad_t quad_t;
typedef __u_quad_t u_quad_t;
typedef __fsid_t fsid_t;




typedef __loff_t loff_t;



typedef __ino_t ino_t;
# 62 "/usr/include/sys/types.h" 3 4
typedef __dev_t dev_t;




typedef __gid_t gid_t;




typedef __mode_t mode_t;




typedef __nlink_t nlink_t;




typedef __uid_t uid_t;





typedef __off_t off_t;
# 100 "/usr/include/sys/types.h" 3 4
typedef __pid_t pid_t;




typedef __id_t id_t;




typedef __ssize_t ssize_t;





typedef __daddr_t daddr_t;
typedef __caddr_t caddr_t;





typedef __key_t key_t;
# 133 "/usr/include/sys/types.h" 3 4
# 1 "/usr/include/time.h" 1 3 4
# 74 "/usr/include/time.h" 3 4


typedef __time_t time_t;



# 92 "/usr/include/time.h" 3 4
typedef __clockid_t clockid_t;
# 104 "/usr/include/time.h" 3 4
typedef __timer_t timer_t;
# 134 "/usr/include/sys/types.h" 2 3 4
# 147 "/usr/include/sys/types.h" 3 4
# 1 "/usr/lib64/gcc/x86_64-suse-linux/4.5/include/stddef.h" 1 3 4
# 148 "/usr/include/sys/types.h" 2 3 4



typedef unsigned long int ulong;
typedef unsigned short int ushort;
typedef unsigned int uint;
# 195 "/usr/include/sys/types.h" 3 4
typedef int int8_t __attribute__ ((__mode__ (__QI__)));
typedef int int16_t __attribute__ ((__mode__ (__HI__)));
typedef int int32_t __attribute__ ((__mode__ (__SI__)));
typedef int int64_t __attribute__ ((__mode__ (__DI__)));


typedef unsigned int u_int8_t __attribute__ ((__mode__ (__QI__)));
typedef unsigned int u_int16_t __attribute__ ((__mode__ (__HI__)));
typedef unsigned int u_int32_t __attribute__ ((__mode__ (__SI__)));
typedef unsigned int u_int64_t __attribute__ ((__mode__ (__DI__)));

typedef int register_t __attribute__ ((__mode__ (__word__)));
# 217 "/usr/include/sys/types.h" 3 4
# 1 "/usr/include/endian.h" 1 3 4
# 37 "/usr/include/endian.h" 3 4
# 1 "/usr/include/bits/endian.h" 1 3 4
# 38 "/usr/include/endian.h" 2 3 4
# 61 "/usr/include/endian.h" 3 4
# 1 "/usr/include/bits/byteswap.h" 1 3 4
# 28 "/usr/include/bits/byteswap.h" 3 4
# 1 "/usr/include/bits/wordsize.h" 1 3 4
# 29 "/usr/include/bits/byteswap.h" 2 3 4
# 62 "/usr/include/endian.h" 2 3 4
# 218 "/usr/include/sys/types.h" 2 3 4


# 1 "/usr/include/sys/select.h" 1 3 4
# 31 "/usr/include/sys/select.h" 3 4
# 1 "/usr/include/bits/select.h" 1 3 4
# 23 "/usr/include/bits/select.h" 3 4
# 1 "/usr/include/bits/wordsize.h" 1 3 4
# 24 "/usr/include/bits/select.h" 2 3 4
# 32 "/usr/include/sys/select.h" 2 3 4


# 1 "/usr/include/bits/sigset.h" 1 3 4
# 24 "/usr/include/bits/sigset.h" 3 4
typedef int __sig_atomic_t;




typedef struct
  {
    unsigned long int __val[(1024 / (8 * sizeof (unsigned long int)))];
  } __sigset_t;
# 35 "/usr/include/sys/select.h" 2 3 4



typedef __sigset_t sigset_t;





# 1 "/usr/include/time.h" 1 3 4
# 120 "/usr/include/time.h" 3 4
struct timespec
  {
    __time_t tv_sec;
    long int tv_nsec;
  };
# 45 "/usr/include/sys/select.h" 2 3 4

# 1 "/usr/include/bits/time.h" 1 3 4
# 69 "/usr/include/bits/time.h" 3 4
struct timeval
  {
    __time_t tv_sec;
    __suseconds_t tv_usec;
  };
# 47 "/usr/include/sys/select.h" 2 3 4


typedef __suseconds_t suseconds_t;





typedef long int __fd_mask;
# 67 "/usr/include/sys/select.h" 3 4
typedef struct
  {






    __fd_mask __fds_bits[1024 / (8 * (int) sizeof (__fd_mask))];


  } fd_set;






typedef __fd_mask fd_mask;
# 99 "/usr/include/sys/select.h" 3 4

# 109 "/usr/include/sys/select.h" 3 4
extern int select (int __nfds, fd_set *__restrict __readfds,
     fd_set *__restrict __writefds,
     fd_set *__restrict __exceptfds,
     struct timeval *__restrict __timeout);
# 121 "/usr/include/sys/select.h" 3 4
extern int pselect (int __nfds, fd_set *__restrict __readfds,
      fd_set *__restrict __writefds,
      fd_set *__restrict __exceptfds,
      const struct timespec *__restrict __timeout,
      const __sigset_t *__restrict __sigmask);



# 221 "/usr/include/sys/types.h" 2 3 4


# 1 "/usr/include/sys/sysmacros.h" 1 3 4
# 30 "/usr/include/sys/sysmacros.h" 3 4
__extension__
extern unsigned int gnu_dev_major (unsigned long long int __dev)
     __attribute__ ((__nothrow__));
__extension__
extern unsigned int gnu_dev_minor (unsigned long long int __dev)
     __attribute__ ((__nothrow__));
__extension__
extern unsigned long long int gnu_dev_makedev (unsigned int __major,
            unsigned int __minor)
     __attribute__ ((__nothrow__));
# 224 "/usr/include/sys/types.h" 2 3 4
# 235 "/usr/include/sys/types.h" 3 4
typedef __blkcnt_t blkcnt_t;



typedef __fsblkcnt_t fsblkcnt_t;



typedef __fsfilcnt_t fsfilcnt_t;
# 270 "/usr/include/sys/types.h" 3 4
# 1 "/usr/include/bits/pthreadtypes.h" 1 3 4
# 23 "/usr/include/bits/pthreadtypes.h" 3 4
# 1 "/usr/include/bits/wordsize.h" 1 3 4
# 24 "/usr/include/bits/pthreadtypes.h" 2 3 4
# 50 "/usr/include/bits/pthreadtypes.h" 3 4
typedef unsigned long int pthread_t;


typedef union
{
  char __size[56];
  long int __align;
} pthread_attr_t;



typedef struct __pthread_internal_list
{
  struct __pthread_internal_list *__prev;
  struct __pthread_internal_list *__next;
} __pthread_list_t;
# 76 "/usr/include/bits/pthreadtypes.h" 3 4
typedef union
{
  struct __pthread_mutex_s
  {
    int __lock;
    unsigned int __count;
    int __owner;

    unsigned int __nusers;



    int __kind;

    int __spins;
    __pthread_list_t __list;
# 101 "/usr/include/bits/pthreadtypes.h" 3 4
  } __data;
  char __size[40];
  long int __align;
} pthread_mutex_t;

typedef union
{
  char __size[4];
  int __align;
} pthread_mutexattr_t;




typedef union
{
  struct
  {
    int __lock;
    unsigned int __futex;
    __extension__ unsigned long long int __total_seq;
    __extension__ unsigned long long int __wakeup_seq;
    __extension__ unsigned long long int __woken_seq;
    void *__mutex;
    unsigned int __nwaiters;
    unsigned int __broadcast_seq;
  } __data;
  char __size[48];
  __extension__ long long int __align;
} pthread_cond_t;

typedef union
{
  char __size[4];
  int __align;
} pthread_condattr_t;



typedef unsigned int pthread_key_t;



typedef int pthread_once_t;





typedef union
{

  struct
  {
    int __lock;
    unsigned int __nr_readers;
    unsigned int __readers_wakeup;
    unsigned int __writer_wakeup;
    unsigned int __nr_readers_queued;
    unsigned int __nr_writers_queued;
    int __writer;
    int __shared;
    unsigned long int __pad1;
    unsigned long int __pad2;


    unsigned int __flags;
  } __data;
# 187 "/usr/include/bits/pthreadtypes.h" 3 4
  char __size[56];
  long int __align;
} pthread_rwlock_t;

typedef union
{
  char __size[8];
  long int __align;
} pthread_rwlockattr_t;





typedef volatile int pthread_spinlock_t;




typedef union
{
  char __size[32];
  long int __align;
} pthread_barrier_t;

typedef union
{
  char __size[4];
  int __align;
} pthread_barrierattr_t;
# 271 "/usr/include/sys/types.h" 2 3 4



# 321 "/usr/include/stdlib.h" 2 3 4






extern long int random (void) __attribute__ ((__nothrow__));


extern void srandom (unsigned int __seed) __attribute__ ((__nothrow__));





extern char *initstate (unsigned int __seed, char *__statebuf,
   size_t __statelen) __attribute__ ((__nothrow__)) __attribute__ ((__nonnull__ (2)));



extern char *setstate (char *__statebuf) __attribute__ ((__nothrow__)) __attribute__ ((__nonnull__ (1)));







struct random_data
  {
    int32_t *fptr;
    int32_t *rptr;
    int32_t *state;
    int rand_type;
    int rand_deg;
    int rand_sep;
    int32_t *end_ptr;
  };

extern int random_r (struct random_data *__restrict __buf,
       int32_t *__restrict __result) __attribute__ ((__nothrow__)) __attribute__ ((__nonnull__ (1, 2)));

extern int srandom_r (unsigned int __seed, struct random_data *__buf)
     __attribute__ ((__nothrow__)) __attribute__ ((__nonnull__ (2)));

extern int initstate_r (unsigned int __seed, char *__restrict __statebuf,
   size_t __statelen,
   struct random_data *__restrict __buf)
     __attribute__ ((__nothrow__)) __attribute__ ((__nonnull__ (2, 4)));

extern int setstate_r (char *__restrict __statebuf,
         struct random_data *__restrict __buf)
     __attribute__ ((__nothrow__)) __attribute__ ((__nonnull__ (1, 2)));






extern int rand (void) __attribute__ ((__nothrow__));

extern void srand (unsigned int __seed) __attribute__ ((__nothrow__));




extern int rand_r (unsigned int *__seed) __attribute__ ((__nothrow__));







extern double drand48 (void) __attribute__ ((__nothrow__));
extern double erand48 (unsigned short int __xsubi[3]) __attribute__ ((__nothrow__)) __attribute__ ((__nonnull__ (1)));


extern long int lrand48 (void) __attribute__ ((__nothrow__));
extern long int nrand48 (unsigned short int __xsubi[3])
     __attribute__ ((__nothrow__)) __attribute__ ((__nonnull__ (1)));


extern long int mrand48 (void) __attribute__ ((__nothrow__));
extern long int jrand48 (unsigned short int __xsubi[3])
     __attribute__ ((__nothrow__)) __attribute__ ((__nonnull__ (1)));


extern void srand48 (long int __seedval) __attribute__ ((__nothrow__));
extern unsigned short int *seed48 (unsigned short int __seed16v[3])
     __attribute__ ((__nothrow__)) __attribute__ ((__nonnull__ (1)));
extern void lcong48 (unsigned short int __param[7]) __attribute__ ((__nothrow__)) __attribute__ ((__nonnull__ (1)));





struct drand48_data
  {
    unsigned short int __x[3];
    unsigned short int __old_x[3];
    unsigned short int __c;
    unsigned short int __init;
    unsigned long long int __a;
  };


extern int drand48_r (struct drand48_data *__restrict __buffer,
        double *__restrict __result) __attribute__ ((__nothrow__)) __attribute__ ((__nonnull__ (1, 2)));
extern int erand48_r (unsigned short int __xsubi[3],
        struct drand48_data *__restrict __buffer,
        double *__restrict __result) __attribute__ ((__nothrow__)) __attribute__ ((__nonnull__ (1, 2)));


extern int lrand48_r (struct drand48_data *__restrict __buffer,
        long int *__restrict __result)
     __attribute__ ((__nothrow__)) __attribute__ ((__nonnull__ (1, 2)));
extern int nrand48_r (unsigned short int __xsubi[3],
        struct drand48_data *__restrict __buffer,
        long int *__restrict __result)
     __attribute__ ((__nothrow__)) __attribute__ ((__nonnull__ (1, 2)));


extern int mrand48_r (struct drand48_data *__restrict __buffer,
        long int *__restrict __result)
     __attribute__ ((__nothrow__)) __attribute__ ((__nonnull__ (1, 2)));
extern int jrand48_r (unsigned short int __xsubi[3],
        struct drand48_data *__restrict __buffer,
        long int *__restrict __result)
     __attribute__ ((__nothrow__)) __attribute__ ((__nonnull__ (1, 2)));


extern int srand48_r (long int __seedval, struct drand48_data *__buffer)
     __attribute__ ((__nothrow__)) __attribute__ ((__nonnull__ (2)));

extern int seed48_r (unsigned short int __seed16v[3],
       struct drand48_data *__buffer) __attribute__ ((__nothrow__)) __attribute__ ((__nonnull__ (1, 2)));

extern int lcong48_r (unsigned short int __param[7],
        struct drand48_data *__buffer)
     __attribute__ ((__nothrow__)) __attribute__ ((__nonnull__ (1, 2)));









extern void *malloc (size_t __size) __attribute__ ((__nothrow__)) __attribute__ ((__malloc__)) ;

extern void *calloc (size_t __nmemb, size_t __size)
     __attribute__ ((__nothrow__)) __attribute__ ((__malloc__)) ;










extern void *realloc (void *__ptr, size_t __size)
     __attribute__ ((__nothrow__)) __attribute__ ((__warn_unused_result__));

extern void free (void *__ptr) __attribute__ ((__nothrow__));




extern void cfree (void *__ptr) __attribute__ ((__nothrow__));



# 1 "/usr/include/alloca.h" 1 3 4
# 25 "/usr/include/alloca.h" 3 4
# 1 "/usr/lib64/gcc/x86_64-suse-linux/4.5/include/stddef.h" 1 3 4
# 26 "/usr/include/alloca.h" 2 3 4







extern void *alloca (size_t __size) __attribute__ ((__nothrow__));






# 498 "/usr/include/stdlib.h" 2 3 4




extern void *valloc (size_t __size) __attribute__ ((__nothrow__)) __attribute__ ((__malloc__)) ;




extern int posix_memalign (void **__memptr, size_t __alignment, size_t __size)
     __attribute__ ((__nothrow__)) __attribute__ ((__nonnull__ (1))) ;




extern void abort (void) __attribute__ ((__nothrow__)) __attribute__ ((__noreturn__));



extern int atexit (void (*__func) (void)) __attribute__ ((__nothrow__)) __attribute__ ((__nonnull__ (1)));
# 530 "/usr/include/stdlib.h" 3 4





extern int on_exit (void (*__func) (int __status, void *__arg), void *__arg)
     __attribute__ ((__nothrow__)) __attribute__ ((__nonnull__ (1)));






extern void exit (int __status) __attribute__ ((__nothrow__)) __attribute__ ((__noreturn__));
# 553 "/usr/include/stdlib.h" 3 4






extern void _Exit (int __status) __attribute__ ((__nothrow__)) __attribute__ ((__noreturn__));






extern char *getenv (__const char *__name) __attribute__ ((__nothrow__)) __attribute__ ((__nonnull__ (1))) ;




extern char *__secure_getenv (__const char *__name)
     __attribute__ ((__nothrow__)) __attribute__ ((__nonnull__ (1))) ;





extern int putenv (char *__string) __attribute__ ((__nothrow__)) __attribute__ ((__nonnull__ (1)));





extern int setenv (__const char *__name, __const char *__value, int __replace)
     __attribute__ ((__nothrow__)) __attribute__ ((__nonnull__ (2)));


extern int unsetenv (__const char *__name) __attribute__ ((__nothrow__));






extern int clearenv (void) __attribute__ ((__nothrow__));
# 604 "/usr/include/stdlib.h" 3 4
extern char *mktemp (char *__template) __attribute__ ((__nothrow__)) __attribute__ ((__nonnull__ (1))) ;
# 615 "/usr/include/stdlib.h" 3 4
extern int mkstemp (char *__template) __attribute__ ((__nonnull__ (1))) ;
# 637 "/usr/include/stdlib.h" 3 4
extern int mkstemps (char *__template, int __suffixlen) __attribute__ ((__nonnull__ (1))) ;
# 658 "/usr/include/stdlib.h" 3 4
extern char *mkdtemp (char *__template) __attribute__ ((__nothrow__)) __attribute__ ((__nonnull__ (1))) ;
# 707 "/usr/include/stdlib.h" 3 4





extern int system (__const char *__command) ;

# 729 "/usr/include/stdlib.h" 3 4
extern char *realpath (__const char *__restrict __name,
         char *__restrict __resolved) __attribute__ ((__nothrow__)) ;






typedef int (*__compar_fn_t) (__const void *, __const void *);
# 747 "/usr/include/stdlib.h" 3 4



extern void *bsearch (__const void *__key, __const void *__base,
        size_t __nmemb, size_t __size, __compar_fn_t __compar)
     __attribute__ ((__nonnull__ (1, 2, 5))) ;



extern void qsort (void *__base, size_t __nmemb, size_t __size,
     __compar_fn_t __compar) __attribute__ ((__nonnull__ (1, 4)));
# 766 "/usr/include/stdlib.h" 3 4
extern int abs (int __x) __attribute__ ((__nothrow__)) __attribute__ ((__const__)) ;
extern long int labs (long int __x) __attribute__ ((__nothrow__)) __attribute__ ((__const__)) ;



__extension__ extern long long int llabs (long long int __x)
     __attribute__ ((__nothrow__)) __attribute__ ((__const__)) ;







extern div_t div (int __numer, int __denom)
     __attribute__ ((__nothrow__)) __attribute__ ((__const__)) ;
extern ldiv_t ldiv (long int __numer, long int __denom)
     __attribute__ ((__nothrow__)) __attribute__ ((__const__)) ;




__extension__ extern lldiv_t lldiv (long long int __numer,
        long long int __denom)
     __attribute__ ((__nothrow__)) __attribute__ ((__const__)) ;

# 802 "/usr/include/stdlib.h" 3 4
extern char *ecvt (double __value, int __ndigit, int *__restrict __decpt,
     int *__restrict __sign) __attribute__ ((__nothrow__)) __attribute__ ((__nonnull__ (3, 4))) ;




extern char *fcvt (double __value, int __ndigit, int *__restrict __decpt,
     int *__restrict __sign) __attribute__ ((__nothrow__)) __attribute__ ((__nonnull__ (3, 4))) ;




extern char *gcvt (double __value, int __ndigit, char *__buf)
     __attribute__ ((__nothrow__)) __attribute__ ((__nonnull__ (3))) ;




extern char *qecvt (long double __value, int __ndigit,
      int *__restrict __decpt, int *__restrict __sign)
     __attribute__ ((__nothrow__)) __attribute__ ((__nonnull__ (3, 4))) ;
extern char *qfcvt (long double __value, int __ndigit,
      int *__restrict __decpt, int *__restrict __sign)
     __attribute__ ((__nothrow__)) __attribute__ ((__nonnull__ (3, 4))) ;
extern char *qgcvt (long double __value, int __ndigit, char *__buf)
     __attribute__ ((__nothrow__)) __attribute__ ((__nonnull__ (3))) ;




extern int ecvt_r (double __value, int __ndigit, int *__restrict __decpt,
     int *__restrict __sign, char *__restrict __buf,
     size_t __len) __attribute__ ((__nothrow__)) __attribute__ ((__nonnull__ (3, 4, 5)));
extern int fcvt_r (double __value, int __ndigit, int *__restrict __decpt,
     int *__restrict __sign, char *__restrict __buf,
     size_t __len) __attribute__ ((__nothrow__)) __attribute__ ((__nonnull__ (3, 4, 5)));

extern int qecvt_r (long double __value, int __ndigit,
      int *__restrict __decpt, int *__restrict __sign,
      char *__restrict __buf, size_t __len)
     __attribute__ ((__nothrow__)) __attribute__ ((__nonnull__ (3, 4, 5)));
extern int qfcvt_r (long double __value, int __ndigit,
      int *__restrict __decpt, int *__restrict __sign,
      char *__restrict __buf, size_t __len)
     __attribute__ ((__nothrow__)) __attribute__ ((__nonnull__ (3, 4, 5)));







extern int mblen (__const char *__s, size_t __n) __attribute__ ((__nothrow__)) ;


extern int mbtowc (wchar_t *__restrict __pwc,
     __const char *__restrict __s, size_t __n) __attribute__ ((__nothrow__)) ;


extern int wctomb (char *__s, wchar_t __wchar) __attribute__ ((__nothrow__)) ;



extern size_t mbstowcs (wchar_t *__restrict __pwcs,
   __const char *__restrict __s, size_t __n) __attribute__ ((__nothrow__));

extern size_t wcstombs (char *__restrict __s,
   __const wchar_t *__restrict __pwcs, size_t __n)
     __attribute__ ((__nothrow__));








extern int rpmatch (__const char *__response) __attribute__ ((__nothrow__)) __attribute__ ((__nonnull__ (1))) ;
# 907 "/usr/include/stdlib.h" 3 4
extern int posix_openpt (int __oflag) ;
# 942 "/usr/include/stdlib.h" 3 4
extern int getloadavg (double __loadavg[], int __nelem)
     __attribute__ ((__nothrow__)) __attribute__ ((__nonnull__ (1)));
# 958 "/usr/include/stdlib.h" 3 4

# 2 "files/fo_test.c" 2
# 1 "./assert.h" 1

void __blast_assert()
{
 ERROR: goto ERROR;
}
# 3 "files/fo_test.c" 2

# 1 "/usr/include/sys/stat.h" 1 3 4
# 39 "/usr/include/sys/stat.h" 3 4
# 1 "/usr/include/time.h" 1 3 4
# 40 "/usr/include/sys/stat.h" 2 3 4
# 105 "/usr/include/sys/stat.h" 3 4


# 1 "/usr/include/bits/stat.h" 1 3 4
# 43 "/usr/include/bits/stat.h" 3 4
struct stat
  {
    __dev_t st_dev;




    __ino_t st_ino;







    __nlink_t st_nlink;
    __mode_t st_mode;

    __uid_t st_uid;
    __gid_t st_gid;

    int __pad0;

    __dev_t st_rdev;




    __off_t st_size;



    __blksize_t st_blksize;

    __blkcnt_t st_blocks;
# 88 "/usr/include/bits/stat.h" 3 4
    struct timespec st_atim;
    struct timespec st_mtim;
    struct timespec st_ctim;
# 103 "/usr/include/bits/stat.h" 3 4
    long int __unused[3];
# 112 "/usr/include/bits/stat.h" 3 4
  };
# 108 "/usr/include/sys/stat.h" 2 3 4
# 209 "/usr/include/sys/stat.h" 3 4
extern int stat (__const char *__restrict __file,
   struct stat *__restrict __buf) __attribute__ ((__nothrow__)) __attribute__ ((__nonnull__ (1, 2)));



extern int fstat (int __fd, struct stat *__buf) __attribute__ ((__nothrow__)) __attribute__ ((__nonnull__ (2)));
# 238 "/usr/include/sys/stat.h" 3 4
extern int fstatat (int __fd, __const char *__restrict __file,
      struct stat *__restrict __buf, int __flag)
     __attribute__ ((__nothrow__)) __attribute__ ((__nonnull__ (2, 3)));
# 263 "/usr/include/sys/stat.h" 3 4
extern int lstat (__const char *__restrict __file,
    struct stat *__restrict __buf) __attribute__ ((__nothrow__)) __attribute__ ((__nonnull__ (1, 2)));
# 284 "/usr/include/sys/stat.h" 3 4
extern int chmod (__const char *__file, __mode_t __mode)
     __attribute__ ((__nothrow__)) __attribute__ ((__nonnull__ (1)));





extern int lchmod (__const char *__file, __mode_t __mode)
     __attribute__ ((__nothrow__)) __attribute__ ((__nonnull__ (1)));




extern int fchmod (int __fd, __mode_t __mode) __attribute__ ((__nothrow__));





extern int fchmodat (int __fd, __const char *__file, __mode_t __mode,
       int __flag)
     __attribute__ ((__nothrow__)) __attribute__ ((__nonnull__ (2))) ;






extern __mode_t umask (__mode_t __mask) __attribute__ ((__nothrow__));
# 321 "/usr/include/sys/stat.h" 3 4
extern int mkdir (__const char *__path, __mode_t __mode)
     __attribute__ ((__nothrow__)) __attribute__ ((__nonnull__ (1)));





extern int mkdirat (int __fd, __const char *__path, __mode_t __mode)
     __attribute__ ((__nothrow__)) __attribute__ ((__nonnull__ (2)));






extern int mknod (__const char *__path, __mode_t __mode, __dev_t __dev)
     __attribute__ ((__nothrow__)) __attribute__ ((__nonnull__ (1)));





extern int mknodat (int __fd, __const char *__path, __mode_t __mode,
      __dev_t __dev) __attribute__ ((__nothrow__)) __attribute__ ((__nonnull__ (2)));





extern int mkfifo (__const char *__path, __mode_t __mode)
     __attribute__ ((__nothrow__)) __attribute__ ((__nonnull__ (1)));





extern int mkfifoat (int __fd, __const char *__path, __mode_t __mode)
     __attribute__ ((__nothrow__)) __attribute__ ((__nonnull__ (2)));





extern int utimensat (int __fd, __const char *__path,
        __const struct timespec __times[2],
        int __flags)
     __attribute__ ((__nothrow__)) __attribute__ ((__nonnull__ (2)));




extern int futimens (int __fd, __const struct timespec __times[2]) __attribute__ ((__nothrow__));
# 399 "/usr/include/sys/stat.h" 3 4
extern int __fxstat (int __ver, int __fildes, struct stat *__stat_buf)
     __attribute__ ((__nothrow__)) __attribute__ ((__nonnull__ (3)));
extern int __xstat (int __ver, __const char *__filename,
      struct stat *__stat_buf) __attribute__ ((__nothrow__)) __attribute__ ((__nonnull__ (2, 3)));
extern int __lxstat (int __ver, __const char *__filename,
       struct stat *__stat_buf) __attribute__ ((__nothrow__)) __attribute__ ((__nonnull__ (2, 3)));
extern int __fxstatat (int __ver, int __fildes, __const char *__filename,
         struct stat *__stat_buf, int __flag)
     __attribute__ ((__nothrow__)) __attribute__ ((__nonnull__ (3, 4)));
# 442 "/usr/include/sys/stat.h" 3 4
extern int __xmknod (int __ver, __const char *__path, __mode_t __mode,
       __dev_t *__dev) __attribute__ ((__nothrow__)) __attribute__ ((__nonnull__ (2, 4)));

extern int __xmknodat (int __ver, int __fd, __const char *__path,
         __mode_t __mode, __dev_t *__dev)
     __attribute__ ((__nothrow__)) __attribute__ ((__nonnull__ (3, 5)));
# 534 "/usr/include/sys/stat.h" 3 4

# 5 "files/fo_test.c" 2
# 1 "/usr/include/fcntl.h" 1 3 4
# 30 "/usr/include/fcntl.h" 3 4




# 1 "/usr/include/bits/fcntl.h" 1 3 4
# 25 "/usr/include/bits/fcntl.h" 3 4
# 1 "/usr/include/bits/wordsize.h" 1 3 4
# 26 "/usr/include/bits/fcntl.h" 2 3 4
# 160 "/usr/include/bits/fcntl.h" 3 4
struct flock
  {
    short int l_type;
    short int l_whence;

    __off_t l_start;
    __off_t l_len;




    __pid_t l_pid;
  };
# 244 "/usr/include/bits/fcntl.h" 3 4

# 289 "/usr/include/bits/fcntl.h" 3 4

# 35 "/usr/include/fcntl.h" 2 3 4
# 78 "/usr/include/fcntl.h" 3 4
extern int fcntl (int __fd, int __cmd, ...);
# 87 "/usr/include/fcntl.h" 3 4
extern int open (__const char *__file, int __oflag, ...) __attribute__ ((__nonnull__ (1)));
# 111 "/usr/include/fcntl.h" 3 4
extern int openat (int __fd, __const char *__file, int __oflag, ...)
     __attribute__ ((__nonnull__ (2)));
# 122 "/usr/include/fcntl.h" 3 4
extern int openat64 (int __fd, __const char *__file, int __oflag, ...)
     __attribute__ ((__nonnull__ (2)));
# 132 "/usr/include/fcntl.h" 3 4
extern int creat (__const char *__file, __mode_t __mode) __attribute__ ((__nonnull__ (1)));
# 161 "/usr/include/fcntl.h" 3 4
extern int lockf (int __fd, int __cmd, __off_t __len);
# 178 "/usr/include/fcntl.h" 3 4
extern int posix_fadvise (int __fd, __off_t __offset, __off_t __len,
     int __advise) __attribute__ ((__nothrow__));
# 200 "/usr/include/fcntl.h" 3 4
extern int posix_fallocate (int __fd, __off_t __offset, __off_t __len);
# 222 "/usr/include/fcntl.h" 3 4

# 6 "files/fo_test.c" 2

int VERDICT_UNSAFE;

int globalState = 0;
ssize_t l_read(int,char*,size_t);
int l_open(char*,int);

int
main(int argc, char* argv[]) {
 int file = l_open("unknown",00);
 void* cbuf = (void*) malloc(sizeof(char)*100);
 int a = l_read(file,cbuf,99);
 return 0;
}

ssize_t l_read(int fd, char* cbuf, size_t count) {
 ((globalState == 1) ? (0) : __blast_assert ());
 return read(fd,cbuf,count);
}

int l_open(char* file, int flags) {
 int fd = open(file,flags);
 if(fd>0) globalState = 1;
 return fd;
}
